-------------------------------------------------------------------------------
Test set: by.clevertec.azimov.StoreTest
-------------------------------------------------------------------------------
Tests run: 3, Failures: 0, Errors: 0, Skipped: 0, Time elapsed: 0.002 s - in by.clevertec.azimov.StoreTest
