by\clevertec\azimov\Main.class
by\clevertec\azimov\implementation\CheckMakerImpl.class
by\clevertec\azimov\interfaces\Store.class
by\clevertec\azimov\models\Card.class
by\clevertec\azimov\interfaces\CheckMaker.class
by\clevertec\azimov\models\Product.class
by\clevertec\azimov\implementation\StoreImpl.class
